2017-1/logical/7:1 mux/simulation/qsim/Vhdl1.msim.vcd
$comment
	File created using the following command:
		vcd file Vhdl1.msim.vcd -direction
$end
$date
	Mon May  8 15:06:42 2017
$end
$version
	ModelSim Version 10.5b
$end
$timescale
	1ps
$end

$scope module test_mux_vhd_vec_tst $end
$var wire 1 ! DEC_MON_OUT [7] $end
$var wire 1 " DEC_MON_OUT [6] $end
$var wire 1 # DEC_MON_OUT [5] $end
$var wire 1 $ DEC_MON_OUT [4] $end
$var wire 1 % DEC_MON_OUT [3] $end
$var wire 1 & DEC_MON_OUT [2] $end
$var wire 1 ' DEC_MON_OUT [1] $end
$var wire 1 ( DEC_MON_OUT [0] $end
$var wire 1 ) INPUT [6] $end
$var wire 1 * INPUT [5] $end
$var wire 1 + INPUT [4] $end
$var wire 1 , INPUT [3] $end
$var wire 1 - INPUT [2] $end
$var wire 1 . INPUT [1] $end
$var wire 1 / INPUT [0] $end
$var wire 1 0 OUTPUT [3] $end
$var wire 1 1 OUTPUT [2] $end
$var wire 1 2 OUTPUT [1] $end
$var wire 1 3 OUTPUT [0] $end
$var wire 1 4 SEL [2] $end
$var wire 1 5 SEL [1] $end
$var wire 1 6 SEL [0] $end

$scope module i1 $end
$var wire 1 7 gnd $end
$var wire 1 8 vcc $end
$var wire 1 9 unknown $end
$var wire 1 : devoe $end
$var wire 1 ; devclrn $end
$var wire 1 < devpor $end
$var wire 1 = ww_devoe $end
$var wire 1 > ww_devclrn $end
$var wire 1 ? ww_devpor $end
$var wire 1 @ ww_INPUT [6] $end
$var wire 1 A ww_INPUT [5] $end
$var wire 1 B ww_INPUT [4] $end
$var wire 1 C ww_INPUT [3] $end
$var wire 1 D ww_INPUT [2] $end
$var wire 1 E ww_INPUT [1] $end
$var wire 1 F ww_INPUT [0] $end
$var wire 1 G ww_SEL [2] $end
$var wire 1 H ww_SEL [1] $end
$var wire 1 I ww_SEL [0] $end
$var wire 1 J ww_OUTPUT [3] $end
$var wire 1 K ww_OUTPUT [2] $end
$var wire 1 L ww_OUTPUT [1] $end
$var wire 1 M ww_OUTPUT [0] $end
$var wire 1 N ww_DEC_MON_OUT [7] $end
$var wire 1 O ww_DEC_MON_OUT [6] $end
$var wire 1 P ww_DEC_MON_OUT [5] $end
$var wire 1 Q ww_DEC_MON_OUT [4] $end
$var wire 1 R ww_DEC_MON_OUT [3] $end
$var wire 1 S ww_DEC_MON_OUT [2] $end
$var wire 1 T ww_DEC_MON_OUT [1] $end
$var wire 1 U ww_DEC_MON_OUT [0] $end
$var wire 1 V \OUTPUT[0]~output_o\ $end
$var wire 1 W \OUTPUT[1]~output_o\ $end
$var wire 1 X \OUTPUT[2]~output_o\ $end
$var wire 1 Y \OUTPUT[3]~output_o\ $end
$var wire 1 Z \DEC_MON_OUT[0]~output_o\ $end
$var wire 1 [ \DEC_MON_OUT[1]~output_o\ $end
$var wire 1 \ \DEC_MON_OUT[2]~output_o\ $end
$var wire 1 ] \DEC_MON_OUT[3]~output_o\ $end
$var wire 1 ^ \DEC_MON_OUT[4]~output_o\ $end
$var wire 1 _ \DEC_MON_OUT[5]~output_o\ $end
$var wire 1 ` \DEC_MON_OUT[6]~output_o\ $end
$var wire 1 a \DEC_MON_OUT[7]~output_o\ $end
$var wire 1 b \SEL[1]~input_o\ $end
$var wire 1 c \INPUT[2]~input_o\ $end
$var wire 1 d \INPUT[1]~input_o\ $end
$var wire 1 e \INPUT[5]~input_o\ $end
$var wire 1 f \SEL[0]~input_o\ $end
$var wire 1 g \SEL[2]~input_o\ $end
$var wire 1 h \OUTPUT~1_combout\ $end
$var wire 1 i \INPUT[0]~input_o\ $end
$var wire 1 j \OUTPUT~2_combout\ $end
$var wire 1 k \INPUT[4]~input_o\ $end
$var wire 1 l \OUTPUT~0_combout\ $end
$var wire 1 m \INPUT[3]~input_o\ $end
$var wire 1 n \OUTPUT~3_combout\ $end
$var wire 1 o \INPUT[6]~input_o\ $end
$var wire 1 p \OUTPUT~4_combout\ $end
$var wire 1 q \OUTPUT~5_combout\ $end
$var wire 1 r \Mux1~3_combout\ $end
$var wire 1 s \Mux1~2_combout\ $end
$var wire 1 t \Mux1~0_combout\ $end
$var wire 1 u \Mux1~1_combout\ $end
$var wire 1 v \Mux1~4_combout\ $end
$var wire 1 w \Mux8~3_combout\ $end
$var wire 1 x \Mux8~4_combout\ $end
$var wire 1 y \OUTPUT~8_combout\ $end
$var wire 1 z \Mux8~5_combout\ $end
$var wire 1 { \Mux8~0_combout\ $end
$var wire 1 | \Mux8~1_combout\ $end
$var wire 1 } \OUTPUT~6_combout\ $end
$var wire 1 ~ \Mux8~2_combout\ $end
$var wire 1 !! \OUTPUT~7_combout\ $end
$var wire 1 "! \OUTPUT~9_combout\ $end
$var wire 1 #! \Mux8~6_combout\ $end
$upscope $end
$upscope $end
$enddefinitions $end
#0
$dumpvars
07
18
x9
1:
1;
1<
1=
1>
1?
0V
0W
0X
0Y
1Z
0[
0\
0]
0^
0_
0`
0a
0b
0c
0d
0e
0f
0g
0h
0i
0j
0k
0l
0m
0n
0o
0p
0q
0r
0s
0t
0u
0v
0w
1x
0y
0z
0{
0|
0}
0~
0!!
0"!
0#!
0)
0*
0+
0,
0-
0.
0/
04
05
06
0@
0A
0B
0C
0D
0E
0F
0G
0H
0I
0J
0K
0L
0M
0N
0O
0P
0Q
0R
0S
0T
1U
0!
0"
0#
0$
0%
0&
0'
1(
00
01
02
03
$end
#500
16
1I
1f
1n
1w
0x
0Z
1[
0U
1T
0(
1'
#1000
06
15
0I
1H
1b
0f
0n
0w
1z
1\
0[
1S
0T
0'
1&
#1500
16
1I
1f
1n
1t
0z
1#!
1^
0\
1Q
0S
0&
1$
#2000
06
05
14
0I
0H
1G
1g
0b
0f
0n
1u
0t
1h
1~
0#!
1p
0u
0^
1]
0Q
1R
1%
0$
#2500
16
1I
1f
0h
1n
1{
0~
1q
0p
0q
0]
1_
0R
1P
1V
0%
1#
1M
0V
13
0M
03
#3000
06
15
0I
1H
1b
0f
1h
0n
0{
1|
1j
1p
1`
0_
1O
0P
0#
1"
#3500
16
1I
1f
0h
1n
1t
0|
0j
0p
0`
0O
0"
#4000
06
05
04
1/
0I
0H
0G
1F
1i
0g
0b
0f
0n
1u
1x
1j
1y
1v
1q
1"!
1Z
1U
1V
1W
1Y
1(
1M
1L
1J
1X
13
12
10
1K
11
#4500
16
1I
1f
1n
0t
0u
1w
0x
0y
0v
0q
0"!
0Z
1[
0U
1T
0V
0W
0Y
0(
1'
0M
0L
0J
0X
03
02
00
0K
01
#5000
06
15
0I
1H
1b
0f
0n
0j
0w
1z
1\
0[
1S
0T
0'
1&
#5500
16
1I
1f
1n
1t
0z
1#!
1^
0\
1Q
0S
0&
1$
#6000
06
05
14
0I
0H
1G
1g
0b
0f
0n
1u
1j
1h
1~
0#!
0j
1p
1q
0q
0^
1]
0Q
1R
1V
1%
0$
1M
0V
13
0M
03
#6500
16
1I
1f
0h
1n
0t
0u
1{
0~
1q
1j
0p
0q
0]
1_
0R
1P
1V
0%
1#
1M
0V
13
0M
03
#7000
06
15
0I
1H
1b
0f
1h
0n
0j
0{
1|
1j
1p
1`
0_
1O
0P
0#
1"
#7500
16
1I
1f
0h
1n
1t
0|
0j
0p
0`
0O
0"
#8000
06
05
04
0/
1.
0I
0H
0G
0F
1E
1d
0i
0g
0b
0f
0n
1x
0t
1u
1v
0u
0v
1Z
1U
1W
1Y
1(
1L
1J
0W
0Y
12
10
0L
0J
02
00
#8500
16
1I
1f
1h
1n
1u
1w
0x
1y
1v
1p
1q
1"!
0Z
1[
0U
1T
1W
1Y
0(
1'
1L
1J
1X
1V
12
10
1K
1M
13
11
#9000
06
15
0I
1H
1b
0f
0h
0n
0u
1j
0w
1z
0y
0v
0q
0j
0p
0"!
1\
0[
1S
0T
0V
0W
0Y
0'
1&
0M
0L
0J
0X
03
02
00
0K
01
#9500
16
1I
1f
1h
1n
1t
1u
0z
1#!
1v
0u
1j
1p
0v
1^
0\
1Q
0S
1W
1Y
0&
1$
1L
1J
0W
0Y
12
10
0L
0J
02
00
#10000
06
05
14
0I
0H
1G
1g
0b
0f
0n
1u
0j
0t
1~
0#!
0u
0^
1]
0Q
1R
1%
0$
#10500
16
1I
1f
0h
1n
1u
1{
0~
1q
0p
0q
0]
1_
0R
1P
1V
0%
1#
1M
0V
13
0M
03
#11000
06
15
0I
1H
1b
0f
1h
0n
0u
0{
1|
1j
1p
1`
0_
1O
0P
0#
1"
#11500
16
1I
1f
0h
1n
1t
1u
0|
0u
0j
0p
0`
0O
0"
#12000
06
05
04
1/
0I
0H
0G
1F
1i
0g
0b
0f
0n
1u
1x
1j
1y
1v
1q
1"!
1Z
1U
1V
1W
1Y
1(
1M
1L
1J
1X
13
12
10
1K
11
#12500
16
1I
1f
1h
1n
0t
0u
1w
0x
0v
1u
0q
0j
1p
1q
1v
0Z
1[
0U
1T
0V
0W
0Y
0(
1'
0M
0L
0J
1W
1Y
1V
03
02
00
1L
1J
1M
13
12
10
#13000
06
15
0I
1H
1b
0f
0h
0n
0u
1j
0w
1z
0y
0v
0q
0j
0p
0"!
1\
0[
1S
0T
0V
0W
0Y
0'
1&
0M
0L
0J
0X
03
02
00
0K
01
#13500
16
1I
1f
1h
1n
1t
1u
0z
1#!
1v
0u
1j
1p
0v
1^
0\
1Q
0S
1W
1Y
0&
1$
1L
1J
0W
0Y
12
10
0L
0J
02
00
#14000
06
05
14
0I
0H
1G
1g
0b
0f
0n
1u
0j
1~
0#!
0^
1]
0Q
1R
1%
0$
#14500
16
1I
1f
0h
1n
0t
0u
1{
0~
1u
1q
1j
0p
0q
0]
1_
0R
1P
1V
0%
1#
1M
0V
13
0M
03
#15000
06
15
0I
1H
1b
0f
1h
0n
0u
0j
0{
1|
1j
1p
1`
0_
1O
0P
0#
1"
#15500
16
1I
1f
0h
1n
1t
1u
0|
0u
0j
0p
0`
0O
0"
#16000
06
05
04
0/
0.
1-
0I
0H
0G
0F
0E
1D
1c
0d
0i
0g
0b
0f
0n
1x
1u
0t
0u
1v
0v
1Z
1U
1W
1Y
1(
1L
1J
0W
0Y
12
10
0L
0J
02
00
#16500
16
1I
1f
1n
1w
0x
0Z
1[
0U
1T
0(
1'
#17000
06
15
0I
1H
1b
0f
0n
1j
1t
0w
1z
1"!
1u
1q
1v
1\
0[
1S
0T
1V
1X
0'
1&
1M
1K
1W
1Y
13
11
1L
1J
12
10
#17500
16
1I
1f
1n
0u
0z
1#!
0"!
0v
0q
1^
0\
1Q
0S
0V
0W
0Y
0X
0&
1$
0M
0L
0J
0K
03
02
01
00
#18000
06
05
14
0I
0H
1G
1g
0b
0f
0n
1u
0j
0t
1h
1~
0#!
0u
1p
0^
1]
0Q
1R
1%
0$
#18500
16
1I
1f
0h
1n
1{
0~
1q
0p
0q
0]
1_
0R
1P
1V
0%
1#
1M
0V
13
0M
03
#19000
06
15
0I
1H
1b
0f
1h
0n
1j
1t
0{
1|
1u
1q
1p
0q
1`
0_
1O
0P
1V
0#
1"
1M
0V
13
0M
03
#19500
16
1I
1f
0h
1n
0u
0|
0p
0`
0O
0"
#20000
06
05
04
1/
0I
0H
0G
1F
1i
0g
0b
0f
0n
1u
1x
1y
1v
1q
1"!
1Z
1U
1V
1W
1Y
1(
1M
1L
1J
1X
13
12
10
1K
11
#20500
16
1I
1f
1n
0t
0u
1w
0x
0y
0v
0q
0"!
0Z
1[
0U
1T
0V
0W
0Y
0(
1'
0M
0L
0J
0X
03
02
00
0K
01
#21000
06
15
0I
1H
1b
0f
0n
1t
0w
1z
1"!
1u
1q
1v
1\
0[
1S
0T
1V
1X
0'
1&
1M
1K
1W
1Y
13
11
1L
1J
12
10
#21500
16
1I
1f
1n
0u
0z
1#!
0"!
0v
0q
1^
0\
1Q
0S
0V
0W
0Y
0X
0&
1$
0M
0L
0J
0K
03
02
01
00
#22000
06
05
14
0I
0H
1G
1g
0b
0f
0n
1u
1h
1~
0#!
0j
1p
1q
0q
0^
1]
0Q
1R
1V
1%
0$
1M
0V
13
0M
03
#22500
16
1I
1f
0h
1n
0t
0u
1{
0~
1q
1j
0p
0q
0]
1_
0R
1P
1V
0%
1#
1M
0V
13
0M
03
#23000
06
15
0I
1H
1b
0f
1h
0n
1t
0{
1|
1u
1q
1p
0q
1`
0_
1O
0P
1V
0#
1"
1M
0V
13
0M
03
#23500
16
1I
1f
0h
1n
0u
0|
0p
0`
0O
0"
#24000
06
05
04
0/
1.
0I
0H
0G
0F
1E
1d
0i
0g
0b
0f
0n
1x
0j
0t
1u
1v
0u
0v
1Z
1U
1W
1Y
1(
1L
1J
0W
0Y
12
10
0L
0J
02
00
#24500
16
1I
1f
1h
1n
1u
1w
0x
1y
1v
1p
1q
1"!
0Z
1[
0U
1T
1W
1Y
0(
1'
1L
1J
1X
1V
12
10
1K
1M
13
11
#25000
06
15
0I
1H
1b
0f
0h
0n
0u
1j
1t
0w
1z
0y
1u
0v
0q
0p
1q
1v
1\
0[
1S
0T
0V
0W
0Y
0'
1&
0M
0L
0J
1W
1Y
1V
03
02
00
1L
1J
1M
13
12
10
#25500
16
1I
1f
1h
1n
0u
0z
1#!
0"!
0v
0q
1p
1^
0\
1Q
0S
0V
0W
0Y
0X
0&
1$
0M
0L
0J
0K
03
02
01
00
#26000
06
05
14
0I
0H
1G
1g
0b
0f
0n
1u
0j
0t
1~
0#!
0u
0^
1]
0Q
1R
1%
0$
#26500
16
1I
1f
0h
1n
1u
1{
0~
1q
0p
0q
0]
1_
0R
1P
1V
0%
1#
1M
0V
13
0M
03
#27000
06
15
0I
1H
1b
0f
1h
0n
0u
1j
1t
0{
1|
1u
1q
1p
0q
1`
0_
1O
0P
1V
0#
1"
1M
0V
13
0M
03
#27500
16
1I
1f
0h
1n
0u
0|
0p
0`
0O
0"
#28000
06
05
04
1/
0I
0H
0G
1F
1i
0g
0b
0f
0n
1u
1x
1y
1v
1q
1"!
1Z
1U
1V
1W
1Y
1(
1M
1L
1J
1X
13
12
10
1K
11
#28500
16
1I
1f
1h
1n
0t
0u
1w
0x
0v
1u
0q
0j
1p
1q
1v
0Z
1[
0U
1T
0V
0W
0Y
0(
1'
0M
0L
0J
1W
1Y
1V
03
02
00
1L
1J
1M
13
12
10
#29000
06
15
0I
1H
1b
0f
0h
0n
0u
1j
1t
0w
1z
0y
1u
0v
0q
0p
1q
1v
1\
0[
1S
0T
0V
0W
0Y
0'
1&
0M
0L
0J
1W
1Y
1V
03
02
00
1L
1J
1M
13
12
10
#29500
16
1I
1f
1h
1n
0u
0z
1#!
0"!
0v
0q
1p
1^
0\
1Q
0S
0V
0W
0Y
0X
0&
1$
0M
0L
0J
0K
03
02
01
00
#30000
06
05
14
0I
0H
1G
1g
0b
0f
0n
1u
0j
1~
0#!
0^
1]
0Q
1R
1%
0$
#30500
16
1I
1f
0h
1n
0t
0u
1{
0~
1u
1q
1j
0p
0q
0]
1_
0R
1P
1V
0%
1#
1M
0V
13
0M
03
#31000
06
15
0I
1H
1b
0f
1h
0n
0u
1t
0{
1|
1u
1q
1p
0q
1`
0_
1O
0P
1V
0#
1"
1M
0V
13
0M
03
#31500
16
1I
1f
0h
1n
0u
0|
0p
0`
0O
0"
#32000
06
05
04
0/
0.
0-
1,
0I
0H
0G
0F
0E
0D
1C
1m
0c
0d
0i
0g
0b
0f
1x
1u
0j
0t
0n
1r
0u
1n
1v
0v
1Z
1U
1W
1Y
1(
1L
1J
0W
0Y
12
10
0L
0J
02
00
#32500
16
1I
1f
0r
1w
0x
0Z
1[
0U
1T
0(
1'
#33000
06
15
0I
1H
1b
0f
0w
1z
1\
0[
1S
0T
0'
1&
#33500
16
1I
1f
1t
0z
1#!
1^
0\
1Q
0S
0&
1$
#34000
06
05
14
0I
0H
1G
1g
0b
0f
1u
1r
0t
1h
1~
0#!
1!!
1p
0u
1v
1q
1"!
0^
1]
0Q
1R
1W
1Y
1%
0$
1L
1J
1X
1V
12
10
1K
1M
13
11
#34500
16
1I
1f
0h
0r
1{
0~
0!!
0v
0p
0q
0"!
0]
1_
0R
1P
0W
0Y
0%
1#
0L
0J
0X
0V
02
00
0K
0M
03
01
#35000
06
15
0I
1H
1b
0f
1h
0{
1|
1j
1p
0n
1`
0_
1O
0P
0#
1"
#35500
16
1I
1f
0h
1n
1t
0|
0j
0p
0`
0O
0"
#36000
06
05
04
1/
0I
0H
0G
1F
1i
0g
0b
0f
1u
1r
1x
1j
0n
1y
1v
1"!
1q
1Z
1U
1W
1Y
1(
1L
1J
1V
1X
12
10
1M
1K
13
11
#36500
16
1I
1f
1n
0r
0t
0u
1w
0x
0y
0v
0q
0"!
0Z
1[
0U
1T
0V
0W
0Y
0(
1'
0M
0L
0J
0X
03
02
00
0K
01
#37000
06
15
0I
1H
1b
0f
0n
0j
0w
1z
1n
1\
0[
1S
0T
0'
1&
#37500
16
1I
1f
1t
0z
1#!
1^
0\
1Q
0S
0&
1$
#38000
06
05
14
0I
0H
1G
1g
0b
0f
1u
1j
1r
1h
1~
0#!
1!!
0j
0n
1p
1v
1n
1"!
0^
1]
1q
0Q
1R
1W
1Y
1%
0$
1L
1J
1X
12
10
1K
1V
11
1M
13
#38500
16
1I
1f
0h
0r
0t
0u
1{
0~
0!!
0v
1j
0p
0q
0"!
0]
1_
0R
1P
0W
0Y
0%
1#
0L
0J
0X
0V
02
00
0K
0M
03
01
#39000
06
15
0I
1H
1b
0f
1h
0n
0j
0{
1|
1n
1j
1p
0n
1`
0_
1O
0P
0#
1"
#39500
16
1I
1f
0h
1n
1t
0|
0j
0p
0`
0O
0"
#40000
06
05
04
0/
1.
0I
0H
0G
0F
1E
1d
0i
0g
0b
0f
1r
1x
0t
1u
0u
1v
0v
1Z
1U
1W
1Y
1(
1L
1J
0W
0Y
12
10
0L
0J
02
00
#40500
16
1I
1f
1h
0r
1u
1w
0x
1y
1v
1p
1q
1"!
0Z
1[
0U
1T
1W
1Y
0(
1'
1L
1J
1X
1V
12
10
1K
1M
13
11
#41000
06
15
0I
1H
1b
0f
0h
0u
1j
0w
1z
0y
0n
0q
0v
0j
0p
1n
0"!
1\
0[
1S
0T
0W
0Y
0V
0'
1&
0L
0J
0M
0X
03
02
00
0K
01
#41500
16
1I
1f
1h
1t
1u
0z
1#!
1v
0u
1j
1p
0v
1^
0\
1Q
0S
1W
1Y
0&
1$
1L
1J
0W
0Y
12
10
0L
0J
02
00
#42000
06
05
14
0I
0H
1G
1g
0b
0f
0n
1u
0j
1r
0t
1~
0#!
1!!
0u
1n
1v
1q
1"!
0^
1]
0Q
1R
1W
1Y
1%
0$
1L
1J
1X
1V
12
10
1K
1M
13
11
#42500
16
1I
1f
0h
0r
1u
1{
0~
0!!
0v
0p
0q
0"!
0]
1_
0R
1P
0W
0Y
0%
1#
0L
0J
0X
0V
02
00
0K
0M
03
01
#43000
06
15
0I
1H
1b
0f
1h
0u
0{
1|
1j
1p
0n
1`
0_
1O
0P
0#
1"
#43500
16
1I
1f
0h
1n
1t
1u
0|
0u
0j
0p
0`
0O
0"
#44000
06
05
04
1/
0I
0H
0G
1F
1i
0g
0b
0f
1u
1r
1x
1j
0n
1y
1v
1"!
1q
1Z
1U
1W
1Y
1(
1L
1J
1V
1X
12
10
1M
1K
13
11
#44500
16
1I
1f
1h
1n
0r
0t
0u
1w
0x
1u
0v
0q
0j
1p
1q
1v
0Z
1[
0U
1T
0V
0W
0Y
0(
1'
0M
0L
0J
1W
1Y
1V
03
02
00
1L
1J
1M
13
12
10
#45000
06
15
0I
1H
1b
0f
0h
0u
1j
0w
1z
0y
0n
0q
0v
0j
0p
1n
0"!
1\
0[
1S
0T
0W
0Y
0V
0'
1&
0L
0J
0M
0X
03
02
00
0K
01
#45500
16
1I
1f
1h
1t
1u
0z
1#!
1v
0u
1j
1p
0v
1^
0\
1Q
0S
1W
1Y
0&
1$
1L
1J
0W
0Y
12
10
0L
0J
02
00
#46000
06
05
14
0I
0H
1G
1g
0b
0f
0n
1u
0j
1r
1~
0#!
1!!
1n
1v
1q
1"!
0^
1]
0Q
1R
1W
1Y
1%
0$
1L
1J
1X
1V
12
10
1K
1M
13
11
#46500
16
1I
1f
0h
0r
0t
0u
1{
0~
0!!
1u
0v
1j
0p
0q
0"!
0]
1_
0R
1P
0W
0Y
0%
1#
0L
0J
0X
0V
02
00
0K
0M
03
01
#47000
06
15
0I
1H
1b
0f
1h
0n
0u
0j
0{
1|
1n
1j
1p
0n
1`
0_
1O
0P
0#
1"
#47500
16
1I
1f
0h
1n
1t
1u
0|
0u
0j
0p
0`
0O
0"
#48000
06
05
04
0/
0.
1-
0I
0H
0G
0F
0E
1D
1c
0d
0i
0g
0b
0f
1r
1x
1u
0t
0u
1v
0v
1Z
1U
1W
1Y
1(
1L
1J
0W
0Y
12
10
0L
0J
02
00
#48500
16
1I
1f
0r
1w
0x
0Z
1[
0U
1T
0(
1'
#49000
06
15
0I
1H
1b
0f
1j
1t
0w
1z
1"!
1u
0n
1q
1v
1\
0[
1S
0T
1X
0'
1&
1K
1W
1Y
1V
11
1L
1J
1M
13
12
10
#49500
16
1I
1f
1n
0u
0z
1#!
0"!
0v
0q
1^
0\
1Q
0S
0V
0W
0Y
0X
0&
1$
0M
0L
0J
0K
03
02
01
00
#50000
06
05
14
0I
0H
1G
1g
0b
0f
0n
1u
0j
1r
0t
1h
1~
0#!
1!!
0u
1n
1p
1v
1q
1"!
0^
1]
0Q
1R
1W
1Y
1%
0$
1L
1J
1X
1V
12
10
1K
1M
13
11
#50500
16
1I
1f
0h
0r
1{
0~
0!!
0v
0p
0q
0"!
0]
1_
0R
1P
0W
0Y
0%
1#
0L
0J
0X
0V
02
00
0K
0M
03
01
#51000
06
15
0I
1H
1b
0f
1h
1j
1t
0{
1|
1u
0n
1p
1`
0_
1O
0P
0#
1"
#51500
16
1I
1f
0h
1n
0u
0|
0p
0`
0O
0"
#52000
06
05
04
1/
0I
0H
0G
1F
1i
0g
0b
0f
0n
1u
1r
1x
1y
1v
1q
1"!
1Z
1U
1V
1W
1Y
1(
1M
1L
1J
1X
13
12
10
1K
11
#52500
16
1I
1f
1n
0r
0t
0u
1w
0x
0y
0v
0q
0"!
0Z
1[
0U
1T
0V
0W
0Y
0(
1'
0M
0L
0J
0X
03
02
00
0K
01
#53000
06
15
0I
1H
1b
0f
0n
1t
0w
1z
1"!
1u
1q
1v
1\
0[
1S
0T
1V
1X
0'
1&
1M
1K
1W
1Y
13
11
1L
1J
12
10
#53500
16
1I
1f
1n
0u
0z
1#!
0"!
0v
0q
1^
0\
1Q
0S
0V
0W
0Y
0X
0&
1$
0M
0L
0J
0K
03
02
01
00
#54000
06
05
14
0I
0H
1G
1g
0b
0f
0n
1u
1r
1h
1~
0#!
1!!
0j
1p
1v
1q
1n
0q
1"!
0^
1]
1q
0Q
1R
1V
1W
1Y
1%
0$
1M
1L
1J
1X
0V
13
12
10
1K
0M
1V
03
11
1M
13
#54500
16
1I
1f
0h
0r
0t
0u
1{
0~
0!!
0v
1j
0p
0q
0"!
0]
1_
0R
1P
0W
0Y
0%
1#
0L
0J
0X
0V
02
00
0K
0M
03
01
#55000
06
15
0I
1H
1b
0f
1h
0n
1t
0{
1|
1u
1q
1p
0q
1`
0_
1O
0P
1V
0#
1"
1M
0V
13
0M
03
#55500
16
1I
1f
0h
1n
0u
0|
0p
0`
0O
0"
#56000
06
05
04
0/
1.
0I
0H
0G
0F
1E
1d
0i
0g
0b
0f
0n
1r
1x
0j
0t
1u
0u
1n
1v
0v
1Z
1U
1W
1Y
1(
1L
1J
0W
0Y
12
10
0L
0J
02
00
#56500
16
1I
1f
1h
0r
1u
1w
0x
1y
1v
1p
1q
1"!
0Z
1[
0U
1T
1W
1Y
0(
1'
1L
1J
1X
1V
12
10
1K
1M
13
11
#57000
06
15
0I
1H
1b
0f
0h
0u
1j
1t
0w
1z
0y
1u
0n
0q
0v
0p
1q
1v
1\
0[
1S
0T
0W
0Y
0V
0'
1&
0L
0J
0M
1W
1Y
1V
03
02
00
1L
1J
1M
13
12
10
#57500
16
1I
1f
1h
1n
0u
0z
1#!
0"!
0v
0q
1p
1^
0\
1Q
0S
0V
0W
0Y
0X
0&
1$
0M
0L
0J
0K
03
02
01
00
#58000
06
05
14
0I
0H
1G
1g
0b
0f
0n
1u
0j
1r
0t
1~
0#!
1!!
0u
1n
1v
1q
1"!
0^
1]
0Q
1R
1W
1Y
1%
0$
1L
1J
1X
1V
12
10
1K
1M
13
11
#58500
16
1I
1f
0h
0r
1u
1{
0~
0!!
0v
0p
0q
0"!
0]
1_
0R
1P
0W
0Y
0%
1#
0L
0J
0X
0V
02
00
0K
0M
03
01
#59000
06
15
0I
1H
1b
0f
1h
0u
1j
1t
0{
1|
1u
0n
1p
1`
0_
1O
0P
0#
1"
#59500
16
1I
1f
0h
1n
0u
0|
0p
0`
0O
0"
#60000
06
05
04
1/
0I
0H
0G
1F
1i
0g
0b
0f
0n
1u
1r
1x
1y
1v
1q
1"!
1Z
1U
1V
1W
1Y
1(
1M
1L
1J
1X
13
12
10
1K
11
#60500
16
1I
1f
1h
1n
0r
0t
0u
1w
0x
1u
0v
0q
0j
1p
1q
1v
0Z
1[
0U
1T
0V
0W
0Y
0(
1'
0M
0L
0J
1W
1Y
1V
03
02
00
1L
1J
1M
13
12
10
#61000
06
15
0I
1H
1b
0f
0h
0u
1j
1t
0w
1z
0y
1u
0n
0q
0v
0p
1q
1v
1\
0[
1S
0T
0W
0Y
0V
0'
1&
0L
0J
0M
1W
1Y
1V
03
02
00
1L
1J
1M
13
12
10
#61500
16
1I
1f
1h
1n
0u
0z
1#!
0"!
0v
0q
1p
1^
0\
1Q
0S
0V
0W
0Y
0X
0&
1$
0M
0L
0J
0K
03
02
01
00
#62000
06
05
14
0I
0H
1G
1g
0b
0f
0n
1u
0j
1r
1~
0#!
1!!
1n
1v
1q
1"!
0^
1]
0Q
1R
1W
1Y
1%
0$
1L
1J
1X
1V
12
10
1K
1M
13
11
#62500
16
1I
1f
0h
0r
0t
0u
1{
0~
0!!
1u
0v
1j
0p
0q
0"!
0]
1_
0R
1P
0W
0Y
0%
1#
0L
0J
0X
0V
02
00
0K
0M
03
01
#63000
06
15
0I
1H
1b
0f
1h
0n
0u
1t
0{
1|
1u
1q
1p
0q
1`
0_
1O
0P
1V
0#
1"
1M
0V
13
0M
03
#63500
16
1I
1f
0h
1n
0u
0|
0p
0`
0O
0"
#64000
06
05
04
0/
0.
0-
0,
1+
0I
0H
0G
0F
0E
0D
0C
1B
1k
0m
0c
0d
0i
0g
0b
0f
1x
0j
0t
0n
1u
1v
0u
0v
1Z
1U
1W
1Y
1(
1L
1J
0W
0Y
12
10
0L
0J
02
00
#64500
16
1I
1f
1n
1w
0x
0Z
1[
0U
1T
0(
1'
#65000
06
15
0I
1H
1b
0f
0n
0w
1z
1\
0[
1S
0T
0'
1&
#65500
16
1I
1f
1l
1n
1t
0z
1#!
1u
1q
1!!
1"!
1v
1^
0\
1Q
0S
1V
0&
1$
1M
1W
1Y
1X
13
1L
1J
1K
12
11
10
#66000
06
05
14
0I
0H
1G
1g
0b
0f
0n
0t
1h
0l
0v
1~
0#!
0!!
1p
0u
0q
0"!
0^
1]
0W
0Y
0Q
1R
0L
0J
0V
1%
0$
02
00
0M
0X
03
0K
01
#66500
16
1I
1f
0h
1n
1{
0~
1q
0p
0q
0]
1_
0R
1P
1V
0%
1#
1M
0V
13
0M
03
#67000
06
15
0I
1H
1b
0f
1h
0n
0{
1|
1j
1p
1`
0_
1O
0P
0#
1"
#67500
16
1I
1f
0h
1n
1t
0|
1u
0j
0p
0`
0O
0"
#68000
06
05
04
1/
0I
0H
0G
1F
1i
0g
0b
0f
0n
1v
1x
1j
1y
1q
1"!
1Z
1W
1Y
1U
1L
1J
1V
1(
12
10
1M
1X
13
1K
11
#68500
16
1I
1f
1n
0t
1w
0x
0y
0u
0q
0v
0"!
0Z
1[
0U
1T
0V
0(
1'
0M
0X
0W
0Y
03
0K
0L
0J
02
01
00
#69000
06
15
0I
1H
1b
0f
0n
0j
0w
1z
1\
0[
1S
0T
0'
1&
#69500
16
1I
1f
1l
1n
1t
0z
1#!
1u
1q
1!!
1"!
1v
1^
0\
1Q
0S
1V
0&
1$
1M
1W
1Y
1X
13
1L
1J
1K
12
11
10
#70000
06
05
14
0I
0H
1G
1g
0b
0f
0n
1j
1h
0l
0v
1~
0#!
0!!
0j
1p
0q
0"!
0^
1]
0W
0Y
0Q
1R
0L
0J
1%
0$
02
00
0X
0V
0K
0M
03
01
#70500
16
1I
1f
0h
1n
0t
1{
0~
0u
1q
1j
0p
0q
0]
1_
0R
1P
1V
0%
1#
1M
0V
13
0M
03
#71000
06
15
0I
1H
1b
0f
1h
0n
0j
0{
1|
1j
1p
1`
0_
1O
0P
0#
1"
#71500
16
1I
1f
0h
1n
1t
0|
1u
0j
0p
0`
0O
0"
#72000
06
05
04
0/
1.
0I
0H
0G
0F
1E
1d
0i
0g
0b
0f
0n
1v
1x
0t
0u
0v
1Z
1W
1Y
1U
1L
1J
1(
12
10
0W
0Y
0L
0J
02
00
#72500
16
1I
1f
1h
1n
1u
1w
0x
1y
1v
1p
1q
1"!
0Z
1[
0U
1T
1W
1Y
0(
1'
1L
1J
1X
1V
12
10
1K
1M
13
11
#73000
06
15
0I
1H
1b
0f
0h
0n
0u
1j
0w
1z
0y
0v
0q
0j
0p
0"!
1\
0[
1S
0T
0V
0W
0Y
0'
1&
0M
0L
0J
0X
03
02
00
0K
01
#73500
16
1I
1f
1h
1l
1n
1t
1u
0z
1#!
1v
1q
1!!
1j
1p
1"!
1^
0\
1Q
0S
1V
1W
1Y
0&
1$
1M
1L
1J
1X
13
12
10
1K
11
