2017-1/logical/hw3/simulation/qsim/Vhdl1.msim.vcd
$comment
	File created using the following command:
		vcd file Vhdl1.msim.vcd -direction
$end
$date
	Tue May  9 21:06:06 2017
$end
$version
	ModelSim Version 10.5b
$end
$timescale
	1ps
$end

$scope module test_mux_vhd_vec_tst $end
$var wire 1 ! DEC_MON_OUT [7] $end
$var wire 1 " DEC_MON_OUT [6] $end
$var wire 1 # DEC_MON_OUT [5] $end
$var wire 1 $ DEC_MON_OUT [4] $end
$var wire 1 % DEC_MON_OUT [3] $end
$var wire 1 & DEC_MON_OUT [2] $end
$var wire 1 ' DEC_MON_OUT [1] $end
$var wire 1 ( DEC_MON_OUT [0] $end
$var wire 1 ) INPUT [6] $end
$var wire 1 * INPUT [5] $end
$var wire 1 + INPUT [4] $end
$var wire 1 , INPUT [3] $end
$var wire 1 - INPUT [2] $end
$var wire 1 . INPUT [1] $end
$var wire 1 / INPUT [0] $end
$var wire 1 0 OUTPUT [3] $end
$var wire 1 1 OUTPUT [2] $end
$var wire 1 2 OUTPUT [1] $end
$var wire 1 3 OUTPUT [0] $end
$var wire 1 4 SEL [2] $end
$var wire 1 5 SEL [1] $end
$var wire 1 6 SEL [0] $end

$scope module i1 $end
$var wire 1 7 gnd $end
$var wire 1 8 vcc $end
$var wire 1 9 unknown $end
$var wire 1 : devoe $end
$var wire 1 ; devclrn $end
$var wire 1 < devpor $end
$var wire 1 = ww_devoe $end
$var wire 1 > ww_devclrn $end
$var wire 1 ? ww_devpor $end
$var wire 1 @ ww_INPUT [6] $end
$var wire 1 A ww_INPUT [5] $end
$var wire 1 B ww_INPUT [4] $end
$var wire 1 C ww_INPUT [3] $end
$var wire 1 D ww_INPUT [2] $end
$var wire 1 E ww_INPUT [1] $end
$var wire 1 F ww_INPUT [0] $end
$var wire 1 G ww_SEL [2] $end
$var wire 1 H ww_SEL [1] $end
$var wire 1 I ww_SEL [0] $end
$var wire 1 J ww_OUTPUT [3] $end
$var wire 1 K ww_OUTPUT [2] $end
$var wire 1 L ww_OUTPUT [1] $end
$var wire 1 M ww_OUTPUT [0] $end
$var wire 1 N ww_DEC_MON_OUT [7] $end
$var wire 1 O ww_DEC_MON_OUT [6] $end
$var wire 1 P ww_DEC_MON_OUT [5] $end
$var wire 1 Q ww_DEC_MON_OUT [4] $end
$var wire 1 R ww_DEC_MON_OUT [3] $end
$var wire 1 S ww_DEC_MON_OUT [2] $end
$var wire 1 T ww_DEC_MON_OUT [1] $end
$var wire 1 U ww_DEC_MON_OUT [0] $end
$var wire 1 V \OUTPUT[0]~output_o\ $end
$var wire 1 W \OUTPUT[1]~output_o\ $end
$var wire 1 X \OUTPUT[2]~output_o\ $end
$var wire 1 Y \OUTPUT[3]~output_o\ $end
$var wire 1 Z \DEC_MON_OUT[0]~output_o\ $end
$var wire 1 [ \DEC_MON_OUT[1]~output_o\ $end
$var wire 1 \ \DEC_MON_OUT[2]~output_o\ $end
$var wire 1 ] \DEC_MON_OUT[3]~output_o\ $end
$var wire 1 ^ \DEC_MON_OUT[4]~output_o\ $end
$var wire 1 _ \DEC_MON_OUT[5]~output_o\ $end
$var wire 1 ` \DEC_MON_OUT[6]~output_o\ $end
$var wire 1 a \DEC_MON_OUT[7]~output_o\ $end
$var wire 1 b \INPUT[3]~input_o\ $end
$var wire 1 c \SEL[1]~input_o\ $end
$var wire 1 d \SEL[0]~input_o\ $end
$var wire 1 e \SEL[2]~input_o\ $end
$var wire 1 f \OUTPUT~0_combout\ $end
$var wire 1 g \INPUT[2]~input_o\ $end
$var wire 1 h \INPUT[1]~input_o\ $end
$var wire 1 i \INPUT[5]~input_o\ $end
$var wire 1 j \OUTPUT~1_combout\ $end
$var wire 1 k \INPUT[0]~input_o\ $end
$var wire 1 l \OUTPUT~2_combout\ $end
$var wire 1 m \INPUT[6]~input_o\ $end
$var wire 1 n \OUTPUT~4_combout\ $end
$var wire 1 o \INPUT[4]~input_o\ $end
$var wire 1 p \OUTPUT~3_combout\ $end
$var wire 1 q \OUTPUT~5_combout\ $end
$var wire 1 r \Mux1~0_combout\ $end
$var wire 1 s \Mux1~1_combout\ $end
$var wire 1 t \Mux1~2_combout\ $end
$var wire 1 u \Mux1~3_combout\ $end
$var wire 1 v \Mux1~4_combout\ $end
$var wire 1 w \Mux8~4_combout\ $end
$var wire 1 x \Mux8~3_combout\ $end
$var wire 1 y \OUTPUT~8_combout\ $end
$var wire 1 z \Mux8~5_combout\ $end
$var wire 1 { \Mux8~0_combout\ $end
$var wire 1 | \Mux8~1_combout\ $end
$var wire 1 } \OUTPUT~6_combout\ $end
$var wire 1 ~ \Mux8~2_combout\ $end
$var wire 1 !! \OUTPUT~7_combout\ $end
$var wire 1 "! \OUTPUT~9_combout\ $end
$var wire 1 #! \Mux8~6_combout\ $end
$upscope $end
$upscope $end
$enddefinitions $end
#0
$dumpvars
07
18
x9
1:
1;
1<
1=
1>
1?
0V
0W
0X
0Y
1Z
0[
0\
0]
0^
0_
0`
0a
0b
0c
0d
0e
0f
0g
0h
0i
0j
0k
0l
0m
0n
0o
0p
0q
0r
0s
0t
0u
0v
1w
0x
0y
0z
0{
0|
0}
0~
0!!
0"!
0#!
0)
0*
0+
0,
0-
0.
0/
04
05
06
0@
0A
0B
0C
0D
0E
0F
0G
0H
0I
0J
0K
0L
0M
0N
0O
0P
0Q
0R
0S
0T
1U
0!
0"
0#
0$
0%
0&
0'
1(
00
01
02
03
$end
#1000
1/
1F
1k
1l
1r
1y
1"!
1s
1q
1v
1V
1X
1M
1K
1W
1Y
13
11
1L
1J
12
10
#2000
0/
1.
0F
1E
1h
0k
0l
0r
0y
0"!
0s
0q
0v
0V
0X
0M
0K
0W
0Y
03
01
0L
0J
02
00
#3000
1/
1F
1k
1l
1r
1y
1"!
1s
1q
1v
1V
1X
1M
1K
1W
1Y
13
11
1L
1J
12
10
#4000
0/
0.
1-
0F
0E
1D
1g
0h
0k
0y
0l
0r
0s
0q
0"!
0v
0X
0V
0K
0M
0W
0Y
03
01
0L
0J
02
00
#5000
1/
1F
1k
1l
1r
1y
1"!
1s
1q
1v
1V
1X
1M
1K
1W
1Y
13
11
1L
1J
12
10
#6000
0/
1.
0F
1E
1h
0k
0l
0r
0y
0"!
0s
0q
0v
0V
0X
0M
0K
0W
0Y
03
01
0L
0J
02
00
#7000
1/
1F
1k
1l
1r
1y
1"!
1s
1q
1v
1V
1X
1M
1K
1W
1Y
13
11
1L
1J
12
10
#8000
0/
0.
0-
1,
0F
0E
0D
1C
1b
0g
0h
0k
0y
0l
0r
0s
0q
0"!
0v
0X
0V
0K
0M
0W
0Y
03
01
0L
0J
02
00
#9000
1/
1F
1k
1l
1r
1y
1"!
1s
1q
1v
1V
1X
1M
1K
1W
1Y
13
11
1L
1J
12
10
#10000
0/
1.
0F
1E
1h
0k
0l
0r
0y
0"!
0s
0q
0v
0V
0X
0M
0K
0W
0Y
03
01
0L
0J
02
00
#11000
1/
1F
1k
1l
1r
1y
1"!
1s
1q
1v
1V
1X
1M
1K
1W
1Y
13
11
1L
1J
12
10
#12000
0/
0.
1-
0F
0E
1D
1g
0h
0k
0y
0l
0r
0s
0q
0"!
0v
0X
0V
0K
0M
0W
0Y
03
01
0L
0J
02
00
#13000
1/
1F
1k
1l
1r
1y
1"!
1s
1q
1v
1V
1X
1M
1K
1W
1Y
13
11
1L
1J
12
10
#14000
0/
1.
0F
1E
1h
0k
0l
0r
0y
0"!
0s
0q
0v
0V
0X
0M
0K
0W
0Y
03
01
0L
0J
02
00
#15000
1/
1F
1k
1l
1r
1y
1"!
1s
1q
1v
1V
1X
1M
1K
1W
1Y
13
11
1L
1J
12
10
#16000
0/
0.
0-
0,
1+
0F
0E
0D
0C
1B
1o
0b
0g
0h
0k
0y
0l
0r
1u
0s
1p
0q
0"!
0v
0X
0V
0K
0M
0W
0Y
03
01
0L
0J
02
00
#17000
1/
1F
1k
1l
1r
1y
1"!
1s
0p
1q
1v
1X
1K
1W
1Y
1V
11
1L
1J
1M
13
12
10
#18000
0/
1.
0F
1E
1h
0k
0l
0r
0y
0"!
0s
1p
0q
0v
0V
0X
0M
0K
0W
0Y
03
01
0L
0J
02
00
#19000
1/
1F
1k
1l
1r
1y
1"!
1s
0p
1q
1v
1X
1K
1W
1Y
1V
11
1L
1J
1M
13
12
10
#20000
0/
0.
1-
0F
0E
1D
1g
0h
0k
0y
0l
0r
0s
1p
0q
0"!
0v
0X
0V
0K
0M
0W
0Y
03
01
0L
0J
02
00
#21000
1/
1F
1k
1l
1r
1y
1"!
1s
0p
1q
1v
1X
1K
1W
1Y
1V
11
1L
1J
1M
13
12
10
#22000
0/
1.
0F
1E
1h
0k
0l
0r
0y
0"!
0s
1p
0q
0v
0V
0X
0M
0K
0W
0Y
03
01
0L
0J
02
00
#23000
1/
1F
1k
1l
1r
1y
1"!
1s
0p
1q
1v
1X
1K
1W
1Y
1V
11
1L
1J
1M
13
12
10
#24000
0/
0.
0-
1,
0F
0E
0D
1C
1b
0g
0h
0k
0y
0l
0r
0s
1p
0q
0"!
0v
0X
0V
0K
0M
0W
0Y
03
01
0L
0J
02
00
#25000
1/
1F
1k
1l
1r
1y
1"!
1s
0p
1q
1v
1X
1K
1W
1Y
1V
11
1L
1J
1M
13
12
10
#26000
0/
1.
0F
1E
1h
0k
0l
0r
0y
0"!
0s
1p
0q
0v
0V
0X
0M
0K
0W
0Y
03
01
0L
0J
02
00
#27000
1/
1F
1k
1l
1r
1y
1"!
1s
0p
1q
1v
1X
1K
1W
1Y
1V
11
1L
1J
1M
13
12
10
#28000
0/
0.
1-
0F
0E
1D
1g
0h
0k
0y
0l
0r
0s
1p
0q
0"!
0v
0X
0V
0K
0M
0W
0Y
03
01
0L
0J
02
00
#29000
1/
1F
1k
1l
1r
1y
1"!
1s
0p
1q
1v
1X
1K
1W
1Y
1V
11
1L
1J
1M
13
12
10
#30000
0/
1.
0F
1E
1h
0k
0l
0r
0y
0"!
0s
1p
0q
0v
0V
0X
0M
0K
0W
0Y
03
01
0L
0J
02
00
#31000
1/
1F
1k
1l
1r
1y
1"!
1s
0p
1q
1v
1X
1K
1W
1Y
1V
11
1L
1J
1M
13
12
10
#32000
0/
0.
0-
0,
0+
1*
0F
0E
0D
0C
0B
1A
1i
0o
0b
0g
0h
0k
0y
0l
0r
0u
0s
0q
0"!
0v
0X
0V
0K
0M
0W
0Y
03
01
0L
0J
02
00
#33000
1/
1F
1k
1l
1r
1y
1"!
1s
1q
1v
1V
1X
1M
1K
1W
1Y
13
11
1L
1J
12
10
#34000
0/
1.
0F
1E
1h
0k
0l
0r
0y
0"!
0s
0q
0v
0V
0X
0M
0K
0W
0Y
03
01
0L
0J
02
00
#35000
1/
1F
1k
1l
1r
1y
1"!
1s
1q
1v
1V
1X
1M
1K
1W
1Y
13
11
1L
1J
12
10
#36000
0/
0.
1-
0F
0E
1D
1g
0h
0k
0y
0l
0r
0s
0q
0"!
0v
0X
0V
0K
0M
0W
0Y
03
01
0L
0J
02
00
#37000
1/
1F
1k
1l
1r
1y
1"!
1s
1q
1v
1V
1X
1M
1K
1W
1Y
13
11
1L
1J
12
10
#38000
0/
1.
0F
1E
1h
0k
0l
0r
0y
0"!
0s
0q
0v
0V
0X
0M
0K
0W
0Y
03
01
0L
0J
02
00
#39000
1/
1F
1k
1l
1r
1y
1"!
1s
1q
1v
1V
1X
1M
1K
1W
1Y
13
11
1L
1J
12
10
#40000
0/
0.
0-
1,
0F
0E
0D
1C
1b
0g
0h
0k
0y
0l
0r
0s
0q
0"!
0v
0X
0V
0K
0M
0W
0Y
03
01
0L
0J
02
00
#41000
1/
1F
1k
1l
1r
1y
1"!
1s
1q
1v
1V
1X
1M
1K
1W
1Y
13
11
1L
1J
12
10
#42000
0/
1.
0F
1E
1h
0k
0l
0r
0y
0"!
0s
0q
0v
0V
0X
0M
0K
0W
0Y
03
01
0L
0J
02
00
#43000
1/
1F
1k
1l
1r
1y
1"!
1s
1q
1v
1V
1X
1M
1K
1W
1Y
13
11
1L
1J
12
10
#44000
0/
0.
1-
0F
0E
1D
1g
0h
0k
0y
0l
0r
0s
0q
0"!
0v
0X
0V
0K
0M
0W
0Y
03
01
0L
0J
02
00
#45000
1/
1F
1k
1l
1r
1y
1"!
1s
1q
1v
1V
1X
1M
1K
1W
1Y
13
11
1L
1J
12
10
#46000
0/
1.
0F
1E
1h
0k
0l
0r
0y
0"!
0s
0q
0v
0V
0X
0M
0K
0W
0Y
03
01
0L
0J
02
00
#47000
1/
1F
1k
1l
1r
1y
1"!
1s
1q
1v
1V
1X
1M
1K
1W
1Y
13
11
1L
1J
12
10
#48000
0/
0.
0-
0,
1+
0F
0E
0D
0C
1B
1o
0b
0g
0h
0k
0y
0l
0r
1u
0s
1p
0q
0"!
0v
0X
0V
0K
0M
0W
0Y
03
01
0L
0J
02
00
#49000
1/
1F
1k
1l
1r
1y
1"!
1s
0p
1q
1v
1X
1K
1W
1Y
1V
11
1L
1J
1M
13
12
10
#50000
0/
1.
0F
1E
1h
0k
0l
0r
0y
0"!
0s
1p
0q
0v
0V
0X
0M
0K
0W
0Y
03
01
0L
0J
02
00
#51000
1/
1F
1k
1l
1r
1y
1"!
1s
0p
1q
1v
1X
1K
1W
1Y
1V
11
1L
1J
1M
13
12
10
#52000
0/
0.
1-
0F
0E
1D
1g
0h
0k
0y
0l
0r
0s
1p
0q
0"!
0v
0X
0V
0K
0M
0W
0Y
03
01
0L
0J
02
00
#53000
1/
1F
1k
1l
1r
1y
1"!
1s
0p
1q
1v
1X
1K
1W
1Y
1V
11
1L
1J
1M
13
12
10
#54000
0/
1.
0F
1E
1h
0k
0l
0r
0y
0"!
0s
1p
0q
0v
0V
0X
0M
0K
0W
0Y
03
01
0L
0J
02
00
#55000
1/
1F
1k
1l
1r
1y
1"!
1s
0p
1q
1v
1X
1K
1W
1Y
1V
11
1L
1J
1M
13
12
10
#56000
0/
0.
0-
1,
0F
0E
0D
1C
1b
0g
0h
0k
0y
0l
0r
0s
1p
0q
0"!
0v
0X
0V
0K
0M
0W
0Y
03
01
0L
0J
02
00
#57000
1/
1F
1k
1l
1r
1y
1"!
1s
0p
1q
1v
1X
1K
1W
1Y
1V
11
1L
1J
1M
13
12
10
#58000
0/
1.
0F
1E
1h
0k
0l
0r
0y
0"!
0s
1p
0q
0v
0V
0X
0M
0K
0W
0Y
03
01
0L
0J
02
00
#59000
1/
1F
1k
1l
1r
1y
1"!
1s
0p
1q
1v
1X
1K
1W
1Y
1V
11
1L
1J
1M
13
12
10
#60000
0/
0.
1-
0F
0E
1D
1g
0h
0k
0y
0l
0r
0s
1p
0q
0"!
0v
0X
0V
0K
0M
0W
0Y
03
01
0L
0J
02
00
#61000
1/
1F
1k
1l
1r
1y
1"!
1s
0p
1q
1v
1X
1K
1W
1Y
1V
11
1L
1J
1M
13
12
10
#62000
0/
1.
0F
1E
1h
0k
0l
0r
0y
0"!
0s
1p
0q
0v
0V
0X
0M
0K
0W
0Y
03
01
0L
0J
02
00
#63000
1/
1F
1k
1l
1r
1y
1"!
1s
0p
1q
1v
1X
1K
1W
1Y
1V
11
1L
1J
1M
13
12
10
#64000
0/
0.
0-
0,
0+
0*
1)
0F
0E
0D
0C
0B
0A
1@
1m
0i
0o
0b
0g
0h
0k
0y
0l
0r
0u
0s
0q
0"!
0v
0X
0V
0K
0M
0W
0Y
03
01
0L
0J
02
00
#65000
1/
1F
1k
1l
1r
1y
1"!
1s
1q
1v
1V
1X
1M
1K
1W
1Y
13
11
1L
1J
12
10
#66000
0/
1.
0F
1E
1h
0k
0l
0r
0y
0"!
0s
0q
0v
0V
0X
0M
0K
0W
0Y
03
01
0L
0J
02
00
#67000
1/
1F
1k
1l
1r
1y
1"!
1s
1q
1v
1V
1X
1M
1K
1W
1Y
13
11
1L
1J
12
10
#68000
0/
0.
1-
0F
0E
1D
1g
0h
0k
0y
0l
0r
0s
0q
0"!
0v
0X
0V
0K
0M
0W
0Y
03
01
0L
0J
02
00
#69000
1/
1F
1k
1l
1r
1y
1"!
1s
1q
1v
1V
1X
1M
1K
1W
1Y
13
11
1L
1J
12
10
#70000
0/
1.
0F
1E
1h
0k
0l
0r
0y
0"!
0s
0q
0v
0V
0X
0M
0K
0W
0Y
03
01
0L
0J
02
00
#71000
1/
1F
1k
1l
1r
1y
1"!
1s
1q
1v
1V
1X
1M
1K
1W
1Y
13
11
1L
1J
12
10
#72000
0/
0.
0-
1,
0F
0E
0D
1C
1b
0g
0h
0k
0y
0l
0r
0s
0q
0"!
0v
0X
0V
0K
0M
0W
0Y
03
01
0L
0J
02
00
#73000
1/
1F
1k
1l
1r
1y
1"!
1s
1q
1v
1V
1X
1M
1K
1W
1Y
13
11
1L
1J
12
10
#74000
0/
1.
0F
1E
1h
0k
0l
0r
0y
0"!
0s
0q
0v
0V
0X
0M
0K
0W
0Y
03
01
0L
0J
02
00
#75000
1/
1F
1k
1l
1r
1y
1"!
1s
1q
1v
1V
1X
1M
1K
1W
1Y
13
11
1L
1J
12
10
#76000
0/
0.
1-
0F
0E
1D
1g
0h
0k
0y
0l
0r
0s
0q
0"!
0v
0X
0V
0K
0M
0W
0Y
03
01
0L
0J
02
00
#77000
1/
1F
1k
1l
1r
1y
1"!
1s
1q
1v
1V
1X
1M
1K
1W
1Y
13
11
1L
1J
12
10
#78000
0/
1.
0F
1E
1h
0k
0l
0r
0y
0"!
0s
0q
0v
0V
0X
0M
0K
0W
0Y
03
01
0L
0J
02
00
#79000
1/
1F
1k
1l
1r
1y
1"!
1s
1q
1v
1V
1X
1M
1K
1W
1Y
13
11
1L
1J
12
10
#80000
0/
0.
0-
0,
1+
0F
0E
0D
0C
1B
1o
0b
0g
0h
0k
0y
0l
0r
1u
0s
1p
0q
0"!
0v
0X
0V
0K
0M
0W
0Y
03
01
0L
0J
02
00
#81000
1/
1F
1k
1l
1r
1y
1"!
1s
0p
1q
1v
1X
1K
1W
1Y
1V
11
1L
1J
1M
13
12
10
#82000
0/
1.
0F
1E
1h
0k
0l
0r
0y
0"!
0s
1p
0q
0v
0V
0X
0M
0K
0W
0Y
03
01
0L
0J
02
00
#83000
1/
1F
1k
1l
1r
1y
1"!
1s
0p
1q
1v
1X
1K
1W
1Y
1V
11
1L
1J
1M
13
12
10
#84000
0/
0.
1-
0F
0E
1D
1g
0h
0k
0y
0l
0r
0s
1p
0q
0"!
0v
0X
0V
0K
0M
0W
0Y
03
01
0L
0J
02
00
#85000
1/
1F
1k
1l
1r
1y
1"!
1s
0p
1q
1v
1X
1K
1W
1Y
1V
11
1L
1J
1M
13
12
10
#86000
0/
1.
0F
1E
1h
0k
0l
0r
0y
0"!
0s
1p
0q
0v
0V
0X
0M
0K
0W
0Y
03
01
0L
0J
02
00
#87000
1/
1F
1k
1l
1r
1y
1"!
1s
0p
1q
1v
1X
1K
1W
1Y
1V
11
1L
1J
1M
13
12
10
#88000
0/
0.
0-
1,
0F
0E
0D
1C
1b
0g
0h
0k
0y
0l
0r
0s
1p
0q
0"!
0v
0X
0V
0K
0M
0W
0Y
03
01
0L
0J
02
00
#89000
1/
1F
1k
1l
1r
1y
1"!
1s
0p
1q
1v
1X
1K
1W
1Y
1V
11
1L
1J
1M
13
12
10
#90000
0/
1.
0F
1E
1h
0k
0l
0r
0y
0"!
0s
1p
0q
0v
0V
0X
0M
0K
0W
0Y
03
01
0L
0J
02
00
#91000
1/
1F
1k
1l
1r
1y
1"!
1s
0p
1q
1v
1X
1K
1W
1Y
1V
11
1L
1J
1M
13
12
10
#92000
0/
0.
1-
0F
0E
1D
1g
0h
0k
0y
0l
0r
0s
1p
0q
0"!
0v
0X
0V
0K
0M
0W
0Y
03
01
0L
0J
02
00
#93000
1/
1F
1k
1l
1r
1y
1"!
1s
0p
1q
1v
1X
1K
1W
1Y
1V
11
1L
1J
1M
13
12
10
#94000
0/
1.
0F
1E
1h
0k
0l
0r
0y
0"!
0s
1p
0q
0v
0V
0X
0M
0K
0W
0Y
03
01
0L
0J
02
00
#95000
1/
1F
1k
1l
1r
1y
1"!
1s
0p
1q
1v
1X
1K
1W
1Y
1V
11
1L
1J
1M
13
12
10
#96000
0/
0.
0-
0,
0+
1*
0F
0E
0D
0C
0B
1A
1i
0o
0b
0g
0h
0k
0y
0l
0r
0u
0s
0q
0"!
0v
0X
0V
0K
0M
0W
0Y
03
01
0L
0J
02
00
#97000
1/
1F
1k
1l
1r
1y
1"!
1s
1q
1v
1V
1X
1M
1K
1W
1Y
13
11
1L
1J
12
10
#98000
0/
1.
0F
1E
1h
0k
0l
0r
0y
0"!
0s
0q
0v
0V
0X
0M
0K
0W
0Y
03
01
0L
0J
02
00
#99000
1/
1F
1k
1l
1r
1y
1"!
1s
1q
1v
1V
1X
1M
1K
1W
1Y
13
11
1L
1J
12
10
#100000
0/
0.
1-
16
0F
0E
1D
1I
1d
1g
0h
0k
0y
0l
1p
0r
0s
1t
0w
1x
0v
0q
0"!
1[
0Z
1T
0U
0X
0V
0W
0Y
0(
1'
0K
0M
0L
0J
03
02
01
00
#101000
1/
1F
1k
1l
#102000
0/
1.
0F
1E
1h
0k
0l
1j
1s
1y
1"!
1v
1n
1q
1W
1Y
1X
1L
1J
1K
1V
12
11
10
1M
13
#103000
1/
1F
1k
#104000
0/
0.
0-
1,
0F
0E
0D
1C
1b
0g
0h
0k
0j
0y
0s
0v
0"!
0n
0q
0X
0W
0Y
0K
0L
0J
0V
02
01
00
0M
03
#105000
1/
1F
1k
1l
#106000
0/
1.
0F
1E
1h
0k
0l
1j
1s
1y
1"!
1v
1n
1q
1W
1Y
1X
1L
1J
1K
1V
12
11
10
1M
13
#107000
1/
1F
1k
#108000
0/
0.
1-
0F
0E
1D
1g
0h
0k
0j
0s
0y
0"!
0v
0n
0q
0W
0Y
0X
0L
0J
0K
0V
02
01
00
0M
03
#109000
1/
1F
1k
1l
#110000
0/
1.
0F
1E
1h
0k
0l
1j
1s
1y
1"!
1v
1n
1q
1W
1Y
1X
1L
1J
1K
1V
12
11
10
1M
13
#111000
1/
1F
1k
#112000
0/
0.
0-
0,
1+
0F
0E
0D
0C
1B
1o
0b
0g
0h
0k
0j
0y
0s
0v
0"!
0n
0q
0X
0W
0Y
0K
0L
0J
0V
02
01
00
0M
03
#113000
1/
1F
1k
1l
#114000
0/
1.
0F
1E
1h
0k
0l
1j
1s
1y
1"!
1v
1n
1q
1W
1Y
1X
1L
1J
1K
1V
12
11
10
1M
13
#115000
1/
1F
1k
#116000
0/
0.
1-
0F
0E
1D
1g
0h
0k
0j
0s
0y
0"!
0v
0n
0q
0W
0Y
0X
0L
0J
0K
0V
02
01
00
0M
03
#117000
1/
1F
1k
1l
#118000
0/
1.
0F
1E
1h
0k
0l
1j
1s
1y
1"!
1v
1n
1q
1W
1Y
1X
1L
1J
1K
1V
12
11
10
1M
13
#119000
1/
1F
1k
#120000
0/
0.
0-
1,
0F
0E
0D
1C
1b
0g
0h
0k
0j
0y
0s
0v
0"!
0n
0q
0X
0W
0Y
0K
0L
0J
0V
02
01
00
0M
03
#121000
1/
1F
1k
1l
#122000
0/
1.
0F
1E
1h
0k
0l
1j
1s
1y
1"!
1v
1n
1q
1W
1Y
1X
1L
1J
1K
1V
12
11
10
1M
13
#123000
1/
1F
1k
#124000
0/
0.
1-
0F
0E
1D
1g
0h
0k
0j
0s
0y
0"!
0v
0n
0q
0W
0Y
0X
0L
0J
0K
0V
02
01
00
0M
03
#125000
1/
1F
1k
1l
#126000
0/
1.
0F
1E
1h
0k
0l
1j
1s
1y
1"!
1v
1n
1q
1W
1Y
1X
1L
1J
1K
1V
12
11
10
1M
13
#127000
1/
1F
1k
#128000
0/
0.
0-
0,
0+
0*
0)
0F
0E
0D
0C
0B
0A
0@
0m
0i
0o
0b
0g
0h
0k
0y
0s
0j
0t
0n
0v
0"!
0q
0X
0W
0Y
0K
0L
0J
0V
02
01
00
0M
03
#129000
1/
1F
1k
1l
#130000
0/
1.
0F
1E
1h
0k
0l
1j
1s
1y
1"!
1v
1n
1q
1W
1Y
1X
1L
1J
1K
1V
12
11
10
1M
13
#131000
1/
1F
1k
#132000
0/
0.
1-
0F
0E
1D
1g
0h
0k
0j
0s
0y
0"!
0v
0n
0q
0W
0Y
0X
0L
0J
0K
0V
02
01
00
0M
03
#133000
1/
1F
1k
1l
#134000
0/
1.
0F
1E
1h
0k
0l
1j
1s
1y
1"!
1v
1n
1q
1W
1Y
1X
1L
1J
1K
1V
12
11
10
1M
13
#135000
1/
1F
1k
#136000
0/
0.
0-
1,
0F
0E
0D
1C
1b
0g
0h
0k
0j
0y
0s
0v
0"!
0n
0q
0X
0W
0Y
0K
0L
0J
0V
02
01
00
0M
03
#137000
1/
1F
1k
1l
#138000
0/
1.
0F
1E
1h
0k
0l
1j
1s
1y
1"!
1v
1n
1q
1W
1Y
1X
1L
1J
1K
1V
12
11
10
1M
13
#139000
1/
1F
1k
#140000
0/
0.
1-
0F
0E
1D
1g
0h
0k
0j
0s
0y
0"!
0v
0n
0q
0W
0Y
0X
0L
0J
0K
0V
02
01
00
0M
03
#141000
1/
1F
1k
1l
#142000
0/
1.
0F
1E
1h
0k
0l
1j
1s
1y
1"!
1v
1n
1q
1W
1Y
1X
1L
1J
1K
1V
12
11
10
1M
13
#143000
1/
1F
1k
#144000
0/
0.
0-
0,
1+
0F
0E
0D
0C
1B
1o
0b
0g
0h
0k
0j
0y
0s
0v
0"!
0n
0q
0X
0W
0Y
0K
0L
0J
0V
02
01
00
0M
03
#145000
1/
1F
1k
1l
#146000
0/
1.
0F
1E
1h
0k
0l
1j
1s
1y
1"!
1v
1n
1q
1W
1Y
1X
1L
1J
1K
1V
12
11
10
1M
13
#147000
1/
1F
1k
#148000
0/
0.
1-
0F
0E
1D
1g
0h
0k
0j
0s
0y
0"!
0v
0n
0q
0W
0Y
0X
0L
0J
0K
0V
02
01
00
0M
03
#149000
1/
1F
1k
1l
#150000
0/
1.
0F
1E
1h
0k
0l
1j
1s
1y
1"!
1v
1n
1q
1W
1Y
1X
1L
1J
1K
1V
12
11
10
1M
13
#151000
1/
1F
1k
#152000
0/
0.
0-
1,
0F
0E
0D
1C
1b
0g
0h
0k
0j
0y
0s
0v
0"!
0n
0q
0X
0W
0Y
0K
0L
0J
0V
02
01
00
0M
03
#153000
1/
1F
1k
1l
#154000
0/
1.
0F
1E
1h
0k
0l
1j
1s
1y
1"!
1v
1n
1q
1W
1Y
1X
1L
1J
1K
1V
12
11
10
1M
13
#155000
1/
1F
1k
#156000
0/
0.
1-
0F
0E
1D
1g
0h
0k
0j
0s
0y
0"!
0v
0n
0q
0W
0Y
0X
0L
0J
0K
0V
02
01
00
0M
03
#157000
1/
1F
1k
1l
#158000
0/
1.
0F
1E
1h
0k
0l
1j
1s
1y
1"!
1v
1n
1q
1W
1Y
1X
1L
1J
1K
1V
12
11
10
1M
13
#159000
1/
1F
1k
#160000
0/
0.
0-
0,
0+
1*
0F
0E
0D
0C
0B
1A
1i
0o
0b
0g
0h
0k
0y
0s
0j
1t
0n
0v
0"!
0q
0X
0W
0Y
0K
0L
0J
0V
02
01
00
0M
03
#161000
1/
1F
1k
1l
#162000
0/
1.
0F
1E
1h
0k
0l
1j
1s
1y
1"!
1v
1n
1q
1W
1Y
1X
1L
1J
1K
1V
12
11
10
1M
13
#163000
1/
1F
1k
#164000
0/
0.
1-
0F
0E
1D
1g
0h
0k
0j
0s
0y
0"!
0v
0n
0q
0W
0Y
0X
0L
0J
0K
0V
02
01
00
0M
03
#165000
1/
1F
1k
1l
#166000
0/
1.
0F
1E
1h
0k
0l
1j
1s
1y
1"!
1v
1n
1q
1W
1Y
1X
1L
1J
1K
1V
12
11
10
1M
13
#167000
1/
1F
1k
#168000
0/
0.
0-
1,
0F
0E
0D
1C
1b
0g
0h
0k
0j
0y
0s
0v
0"!
0n
0q
0X
0W
0Y
0K
0L
0J
0V
02
01
00
0M
03
#169000
1/
1F
1k
1l
#170000
0/
1.
0F
1E
1h
0k
0l
1j
1s
1y
1"!
1v
1n
1q
1W
1Y
1X
1L
1J
1K
1V
12
11
10
1M
13
#171000
1/
1F
1k
#172000
0/
0.
1-
0F
0E
1D
1g
0h
0k
0j
0s
0y
0"!
0v
0n
0q
0W
0Y
0X
0L
0J
0K
0V
02
01
00
0M
03
#173000
1/
1F
1k
1l
#174000
0/
1.
0F
1E
1h
0k
0l
1j
1s
1y
1"!
1v
1n
1q
1W
1Y
1X
1L
1J
1K
1V
12
11
10
1M
13
#175000
1/
1F
1k
#176000
0/
0.
0-
0,
1+
0F
0E
0D
0C
1B
1o
0b
0g
0h
0k
0j
0y
0s
0v
0"!
0n
0q
0X
0W
0Y
0K
0L
0J
0V
02
01
00
0M
03
#177000
1/
1F
1k
1l
#178000
0/
1.
0F
1E
1h
0k
0l
1j
1s
1y
1"!
1v
1n
1q
1W
1Y
1X
1L
1J
1K
1V
12
11
10
1M
13
#179000
1/
1F
1k
#180000
0/
0.
1-
0F
0E
1D
1g
0h
0k
0j
0s
0y
0"!
0v
0n
0q
0W
0Y
0X
0L
0J
0K
0V
02
01
00
0M
03
#181000
1/
1F
1k
1l
#182000
0/
1.
0F
1E
1h
0k
0l
1j
1s
1y
1"!
1v
1n
1q
1W
1Y
1X
1L
1J
1K
1V
12
11
10
1M
13
#183000
1/
1F
1k
#184000
0/
0.
0-
1,
0F
0E
0D
1C
1b
0g
0h
0k
0j
0y
0s
0v
0"!
0n
0q
0X
0W
0Y
0K
0L
0J
0V
02
01
00
0M
03
#185000
1/
1F
1k
1l
#186000
0/
1.
0F
1E
1h
0k
0l
1j
1s
1y
1"!
1v
1n
1q
1W
1Y
1X
1L
1J
1K
1V
12
11
10
1M
13
